Sample Generalized Random Dot Product Graphs in Linear Time • fastRG
…
Now, conditional on this latent representation, we can sample graphs. fastRG supports several different output types, each of which is specified by the suffix to sample_*() functions. For example, we can obtain an edgelist in a tibble with:

sample_edgelist(sbm)
#> # A tibble: 2,484 × 2
#>     from    to
#>    <int> <int>
#>  1     4   155
#>  2    46   141
#>  3    42    56
#>  4    42    55
#>  5    72   167
#>  6    32    68
#>  7    67    75
#>  8    10   164
#>  9    30   154
#> 10    74   182
#> # ℹ 2,474 more rows
…
