…
Now, conditional on this latent representation, we can sample graphs.
`fastRG` supports several different output types, each of which is
specified by the suffix to `sample_*()` functions. For example, we can
obtain an edgelist in a `tibble` with:

``` r
sample_edgelist(sbm)
#> # A tibble: 4,990 x 2
#>     from    to
#>    <int> <int>
#>  1    94   111
#>  2    86   143
#>  3    43    89
#>  4    61   159
#>  5    22   210
#>  6     4   197
#>  7    30   145
#>  8   119   136
#>  9    41   142
#> 10   175   182
#> # … with 4,980 more rows
```
…
