Demonstration: simulation study • fastRG
…
sims <- run_simulation(model_distinct)
sims
#> # A tibble: 180 × 7
#>        n  reps pop        s_pop        A                s_obs        loss    
#>    <dbl> <int> <list>     <list>       <list>           <list>       <list>  
#>  1   100     1 <undrctd_> <named list> <dsCMatrx[,100]> <named list> <tibble>
#>  2   100     2 <undrctd_> <named list> <dsCMatrx[,100]> <named list> <tibble>
#>  3   100     3 <undrctd_> <named list> <dsCMatrx[,100]> <named list> <tibble>
#>  4   100     4 <undrctd_> <named list> <dsCMatrx[,100]> <named list> <tibble>
#>  5   100     5 <undrctd_> <named list> <dsCMatrx[,100]> <named list> <tibble>
#>  6   100     6 <undrctd_> <named list> <dsCMatrx[,100]> <named list> <tibble>
#>  7   100     7 <undrctd_> <named list> <dsCMatrx[,100]> <named list> <tibble>
#>  8   100     8 <undrctd_> <named list> <dsCMatrx[,100]> <named list> <tibble>
#>  9   100     9 <undrctd_> <named list> <dsCMatrx[,100]> <named list> <tibble>
#> 10   100    10 <undrctd_> <named list> <dsCMatrx[,100]> <named list> <tibble>
#> # ℹ 170 more rows
…
results <- summarize_simulations(sims)
results
#> # A tibble: 90 × 3
#>        n loss_type                 loss
#>    <dbl> <chr>                    <dbl>
#>  1   100 Sin Theta Loss          1.78  
#>  2   100 U two-inf               0.538 
#>  3   100 X two-inf               1.53  
#>  4   100 Spectral                3.78  
#>  5   100 spectral_loss_rotated   4.42  
#>  6   100 spectral_loss_relative1 0.0538
#>  7   100 spectral_loss_relative2 0.101 
#>  8   100 spectral_loss_relative3 0.137 
#>  9   100 spectral_loss_relative4 0.294 
#> 10   100 spectral_loss_relative5 0.513 
#> # ℹ 80 more rows
…
