…
sims <- run_simulation(model_distinct)
sims
#> # A tibble: 180 × 7
#>        n  reps pop        s_pop        A                s_obs        loss    
#>    <dbl> <int> <list>     <list>       <list>           <list>       <list>  
#>  1   100     1 <undrctd_> <named list> <dsCMatrx[,100]> <named list> <tibble>
#>  2   100     2 <undrctd_> <named list> <dsCMatrx[,100]> <named list> <tibble>
#>  3   100     3 <undrctd_> <named list> <dsCMatrx[,100]> <named list> <tibble>
#>  4   100     4 <undrctd_> <named list> <dsCMatrx[,100]> <named list> <tibble>
#>  5   100     5 <undrctd_> <named list> <dsCMatrx[,100]> <named list> <tibble>
#>  6   100     6 <undrctd_> <named list> <dsCMatrx[,100]> <named list> <tibble>
#>  7   100     7 <undrctd_> <named list> <dsCMatrx[,100]> <named list> <tibble>
#>  8   100     8 <undrctd_> <named list> <dsCMatrx[,100]> <named list> <tibble>
#>  9   100     9 <undrctd_> <named list> <dsCMatrx[,100]> <named list> <tibble>
#> 10   100    10 <undrctd_> <named list> <dsCMatrx[,100]> <named list> <tibble>
#> # ℹ 170 more rows
```
…
results <- summarize_simulations(sims)
results
#> # A tibble: 54 × 3
#>        n loss_type                   loss
#>    <dbl> <chr>                      <dbl>
#>  1   100 Sin Theta Loss            0.848 
#>  2   100 U two-inf                 0.347 
#>  3   100 X two-inf                 1.28  
#>  4   100 Spectral                  2.73  
#>  5   100 Sin Theta Loss (column 1) 0.0636
#>  6   100 Sin Theta Loss (column 2) 0.147 
#>  7   100 Sin Theta Loss (column 3) 0.239 
#>  8   100 Sin Theta Loss (column 4) 0.363 
#>  9   100 Sin Theta Loss (column 5) 0.588 
#> 10   180 Sin Theta Loss            0.542 
#> # ℹ 44 more rows
```
…
