Create an undirected overlapping degree corrected stochastic blockmodel object — overlapping_sbm • fastRG
…
edgelist <- sample_edgelist(custom_overlapping_sbm)
edgelist
#> # A tibble: 1,026 × 2
#>     from    to
#>    <int> <int>
#>  1     3    33
#>  2     2     8
#>  3     1     1
#>  4    28    39
#>  5    26    33
#>  6    10    19
#>  7    19    32
#>  8    21    24
#>  9    25    41
#> 10    23    33
#> # ℹ 1,016 more rows
…
