Sample a random dot product graph as a tidygraph graph — sample_tidygraph.directed_erdos_renyi • fastRG
…
### sampling graphs as edgelists ----------------------

edgelist <- sample_edgelist(ufm)
edgelist

#> # A tibble: 505 x 2
#>     from    to
#>    <int> <int>
#>  1    66    71
#>  2    83    87
#>  3    37    87
#>  4    92    95
#>  5    14    94
#>  6    54    85
#>  7    11    76
#>  8    45    57
#>  9    57    74
#> 10    11    22
#> # … with 495 more rows
…
### sampling graphs as edgelists ----------------------

edgelist2 <- sample_edgelist(fm)
edgelist2

#> # A tibble: 93 x 2
#>     from    to
#>    <int> <int>
#>  1     4    23
#>  2    37    20
#>  3    40    27
#>  4    31    18
#>  5    52    47
#>  6    64    11
#>  7    74    23
#>  8    95    46
#>  9    85    39
#> 10    79    30
#> # … with 83 more rows
…
