Create an undirected Chung-Lu object — chung_lu • fastRG
…
edgelist <- sample_edgelist(cl)
edgelist

#> # A tibble: 5,077 × 2
#>     from    to
#>    <int> <int>
#>  1    17    49
#>  2    34    80
#>  3     5     6
#>  4   648   930
#>  5    88   666
#>  6   122   277
#>  7     6    18
#>  8    65   708
#>  9    48   608
#> 10    59   309
#> # … with 5,067 more rows
…
