…
edgelist <- sample_edgelist(cl)
edgelist
#> # A tibble: 28 × 2
#>     from    to
#>    <int> <int>
#>  1    14    76
#>  2     3     4
#>  3     8    23
#>  4     5     8
#>  5    20    59
#>  6     1     2
#>  7     8    33
#>  8     1    80
#>  9     2    43
#> 10     1     5
#> # ℹ 18 more rows
```
