…
edgelist <- sample_edgelist(custom_dcsbm)
edgelist
#> # A tibble: 4,925 × 2
#>     from    to
#>    <int> <int>
#>  1     8    12
#>  2     3     7
#>  3     3     6
#>  4     3     6
#>  5     1    10
#>  6     2     9
#>  7     2     7
#>  8     1     4
#>  9     2     3
#> 10     1     5
#> # ℹ 4,915 more rows
…
