…
edgelist <- sample_edgelist(custom_mmsbm)
edgelist
#> # A tibble: 2,530 × 2
#>     from    to
#>    <int> <int>
#>  1    32    63
#>  2    11    19
#>  3    10    17
#>  4     1    15
#>  5     3    33
#>  6    13    14
#>  7     2    21
#>  8    14    46
#>  9     1     2
#> 10     2     8
#> # ℹ 2,520 more rows
…
