Sample a random dot product graph as a tidygraph graph — sample_tidygraph • fastRG
…
### sampling graphs as edgelists ----------------------

edgelist <- sample_edgelist(ufm)
edgelist

#> # A tibble: 49,931 x 2
#>     from    to
#>    <int> <int>
#>  1   691   298
#>  2   309   629
#>  3   469   143
#>  4   109   953
#>  5    74   478
#>  6   400    61
#>  7    47    70
#>  8   116   453
#>  9   384   161
#> 10   854   229
#> # … with 49,921 more rows
…
### sampling graphs as edgelists ----------------------

edgelist2 <- sample_edgelist(fm)
edgelist2

#> # A tibble: 499,727 x 2
#>     from    to
#>    <int> <int>
#>  1  3607  4512
#>  2  4580  4583
#>  3  1876  1989
#>  4   994  2945
#>  5  7665  2347
#>  6  9038  4582
#>  7   663  1491
#>  8  6465   709
#>  9  7074  3241
#> 10  2922   101
#> # … with 499,717 more rows
…
