Low level interface to sample RPDG edgelists — sample_edgelist.matrix • fastRG
…
set.seed(46)

n <- 10000
d <- 1000

k1 <- 5
k2 <- 3

X <- matrix(rpois(n = n * k1, 1), nrow = n)
S <- matrix(runif(n = k1 * k2, 0, .1), nrow = k1)
Y <- matrix(rpois(n = d * k2, 1), nrow = d)

sample_edgelist(X, S, Y, TRUE, TRUE, TRUE)
#> # A tibble: 8,089,734 × 2
#>     from    to
#>    <int> <int>
#>  1  2325   310
#>  2   531   962
#>  3    83   779
#>  4  2894   294
#>  5  5454   157
#>  6  7379   677
#>  7  9789   178
#>  8  3077   750
#>  9  7587   992
#> 10  1929   387
#> # ℹ 8,089,724 more rows
…
