…
### sampling graphs as edgelists ----------------------

edgelist <- sample_edgelist(ufm)
edgelist
#> # A tibble: 251 × 2
#>     from    to
#>    <int> <int>
#>  1    44    57
#>  2    65    66
#>  3    75    97
#>  4    12    87
#>  5    13    71
#>  6    24    87
#>  7    37    65
#>  8    92    98
#>  9    14    94
#> 10    22    85
#> # ℹ 241 more rows
…
### sampling graphs as edgelists ----------------------

edgelist2 <- sample_edgelist(fm)
edgelist2
#> # A tibble: 96 × 2
#>     from    to
#>    <int> <int>
#>  1    40    10
#>  2    46    36
#>  3    31    36
#>  4     4    34
#>  5    40     9
#>  6    54    32
#>  7    38    24
#>  8   100    17
#>  9    79    11
#> 10    53    11
#> # ℹ 86 more rows
…
