Sample a random dot product graph as an igraph graph — sample_igraph • fastRG
…
### sampling graphs as edgelists ----------------------

edgelist <- sample_edgelist(ufm)
edgelist

#> # A tibble: 24,951 x 2
#>     from    to
#>    <int> <int>
#>  1   691   831
#>  2   309   988
#>  3   469   371
#>  4   109   954
#>  5    74   397
#>  6   400   982
#>  7    47   952
#>  8   116   600
#>  9   384   652
#> 10   854   818
#> # … with 24,941 more rows
…
### sampling graphs as edgelists ----------------------

edgelist2 <- sample_edgelist(fm)
edgelist2

#> # A tibble: 500,592 x 2
#>     from    to
#>    <int> <int>
#>  1   351  4865
#>  2  6482  2676
#>  3  2742  2316
#>  4  9406  4523
#>  5  1412  1706
#>  6  1819  2960
#>  7  4000  3484
#>  8  3986  3948
#>  9  8587  2823
#> 10  5481  4134
#> # … with 500,582 more rows
…
