…
### sampling graphs as edgelists ----------------------

edgelist <- sample_edgelist(ufm)
edgelist
#> # A tibble: 500 × 2
#>     from    to
#>    <int> <int>
#>  1    66    71
#>  2    85    87
#>  3    37    54
#>  4    70    92
#>  5    14    44
#>  6    66    85
#>  7    76    83
#>  8    57    87
#>  9    57    95
#> 10    22    94
#> # ℹ 490 more rows
…
### sampling graphs as edgelists ----------------------

edgelist2 <- sample_edgelist(fm)
edgelist2
#> # A tibble: 105 × 2
#>     from    to
#>    <int> <int>
#>  1    84    34
#>  2    80    16
#>  3    42    30
#>  4    42    31
#>  5    47    26
#>  6     7    31
#>  7    39    14
#>  8    14    11
#>  9    49    47
#> 10    54    28
#> # ℹ 95 more rows
…
