Create an undirected stochastic blockmodel object — sbm • fastRG
…
edgelist <- sample_edgelist(bernoulli_sbm)
edgelist

#> # A tibble: 200,837 x 2
#>     from    to
#>    <int> <int>
#>  1     5    10
#>  2     4    30
#>  3     5    18
#>  4     7    37
#>  5    13    61
#>  6    11    57
#>  7     9    78
#>  8     6    69
#>  9    14    77
#> 10     5    91
#> # … with 200,827 more rows
…
